{
  "infoHeads": [
    [
      {
        "x": -4.0,
        "y": 66.0,
        "z": -2.0,
        "world": "spawn"
      },
      {
        "elementList": [
          {
            "type": "com.haroldstudios.infoheads.elements.MessageElement",
            "data": {
              "message": "&7"
            }
          },
          {
            "type": "com.haroldstudios.infoheads.elements.MessageElement",
            "data": {
              "message": "&8▪ &7Скорее присоеденяйся в нашу группу &9VK"
            }
          },
          {
            "type": "com.haroldstudios.infoheads.elements.MessageElement",
            "data": {
              "message": "&8▪ &e&nvk.com/zabmc"
            }
          },
          {
            "type": "com.haroldstudios.infoheads.elements.MessageElement",
            "data": {
              "message": "&7"
            }
          }
        ],
        "location": {
          "x": -4.0,
          "y": 66.0,
          "z": -2.0,
          "world": "spawn"
        },
        "id": "6e200f3f-c489-4316-8b80-1bd70cc5aae8",
        "timestamps": {}
      }
    ],
    [
      {
        "x": 4.0,
        "y": 66.0,
        "z": -2.0,
        "world": "spawn"
      },
      {
        "elementList": [
          {
            "type": "com.haroldstudios.infoheads.elements.MessageElement",
            "data": {
              "message": "&8"
            }
          },
          {
            "type": "com.haroldstudios.infoheads.elements.MessageElement",
            "data": {
              "message": "&8▪ &7Ссылка на наш &9Discord"
            }
          },
          {
            "type": "com.haroldstudios.infoheads.elements.MessageElement",
            "data": {
              "message": "&8▪ &e&ndiscord.gg/DRJpBWP"
            }
          },
          {
            "type": "com.haroldstudios.infoheads.elements.MessageElement",
            "data": {
              "message": "&7"
            }
          }
        ],
        "location": {
          "x": 4.0,
          "y": 66.0,
          "z": -2.0,
          "world": "spawn"
        },
        "id": "af201a3e-78eb-4942-9525-be986eec5ff3",
        "timestamps": {}
      }
    ],
    [
      {
        "x": 14.0,
        "y": 36.0,
        "z": -45.0,
        "world": "spawn"
      },
      {
        "elementList": [
          {
            "type": "com.haroldstudios.infoheads.elements.MessageElement",
            "data": {
              "message": "&7"
            }
          },
          {
            "type": "com.haroldstudios.infoheads.elements.MessageElement",
            "data": {
              "message": "&8▪ &7Ссылка на наш &9&lDiscord&7:"
            }
          },
          {
            "type": "com.haroldstudios.infoheads.elements.MessageElement",
            "data": {
              "message": "&8▪ &e&ndiscord.gg/DRJpBWP"
            }
          },
          {
            "type": "com.haroldstudios.infoheads.elements.MessageElement",
            "data": {
              "message": "&7"
            }
          }
        ],
        "location": {
          "x": 14.0,
          "y": 36.0,
          "z": -45.0,
          "world": "spawn"
        },
        "id": "05f1da87-0cfb-48a1-8eff-6d2cd12523d2",
        "timestamps": {}
      }
    ],
    [
      {
        "x": 8.0,
        "y": 36.0,
        "z": -45.0,
        "world": "spawn"
      },
      {
        "elementList": [
          {
            "type": "com.haroldstudios.infoheads.elements.MessageElement",
            "data": {
              "message": "&7"
            }
          },
          {
            "type": "com.haroldstudios.infoheads.elements.MessageElement",
            "data": {
              "message": "&8▪ &7Ссылка на наш &1&lVK&7:"
            }
          },
          {
            "type": "com.haroldstudios.infoheads.elements.MessageElement",
            "data": {
              "message": "&8▪ &e&nvk.com/zabmc"
            }
          },
          {
            "type": "com.haroldstudios.infoheads.elements.MessageElement",
            "data": {
              "message": "&7"
            }
          }
        ],
        "location": {
          "x": 8.0,
          "y": 36.0,
          "z": -45.0,
          "world": "spawn"
        },
        "id": "5335dc7b-25b6-4185-9554-cca5f116019f",
        "timestamps": {}
      }
    ]
  ]
}