{
  "text": "",
  "extra": [
    {
      "text": "╔══\n║ ",
      "color": "green",
      "clickEvent": {
        "action": "open_url",
        "value": "https://zabmc.ru/shop"
      },
      "hoverEvent": {
        "action": "show_text",
        "value": "Нажмите чтобы перейти на сайт."
      }
    },
    {
      "text": "Новогодние скидки подвезли уже сегодня!",
      "color": "white",
      "clickEvent": {
        "action": "open_url",
        "value": "https://zabmc.ru/shop"
      },
      "hoverEvent": {
        "action": "show_text",
        "value": "Нажмите чтобы перейти на сайт."
      }
    },
    {
      "text": "\n║ ",
      "color": "green",
      "clickEvent": {
        "action": "open_url",
        "value": "https://zabmc.ru/shop"
      },
      "hoverEvent": {
        "action": "show_text",
        "value": "Нажмите чтобы перейти на сайт."
      }
    },
    {
      "text": "Покупай донат с 50%-й скидкой, только сегодня - ",
      "color": "white",
      "clickEvent": {
        "action": "open_url",
        "value": "https://zabmc.ru/shop"
      },
      "hoverEvent": {
        "action": "show_text",
        "value": "Нажмите чтобы перейти на сайт."
      }
    },
    {
      "text": "/donate",
      "color": "green",
      "clickEvent": {
        "action": "open_url",
        "value": "https://zabmc.ru/shop"
      },
      "hoverEvent": {
        "action": "show_text",
        "value": "Нажмите чтобы перейти на сайт."
      }
    },
    {
      "text": "\n║ ",
      "color": "green",
      "clickEvent": {
        "action": "open_url",
        "value": "https://zabmc.ru/shop"
      },
      "hoverEvent": {
        "action": "show_text",
        "value": "Нажмите чтобы перейти на сайт."
      }
    },
    {
      "text": "Покупать донат на сайте ",
      "color": "white",
      "clickEvent": {
        "action": "open_url",
        "value": "https://zabmc.ru/shop"
      },
      "hoverEvent": {
        "action": "show_text",
        "value": "Нажмите чтобы перейти на сайт."
      }
    },
    {
      "text": "https://zabmc.ru/shop",
      "color": "green",
      "clickEvent": {
        "action": "open_url",
        "value": "https://zabmc.ru/shop"
      },
      "hoverEvent": {
        "action": "show_text",
        "value": "Нажмите чтобы перейти на сайт."
      }
    },
    {
      "text": "\n╚══",
      "color": "green",
      "clickEvent": {
        "action": "open_url",
        "value": "https://zabmc.ru/shop"
      },
      "hoverEvent": {
        "action": "show_text",
        "value": "Нажмите чтобы перейти на сайт."
      }
    }
  ]
}